…
The package also provides data of observed SST records for three historical MHWs: the 2011 Western Australia event, the 2012 Northwest Atlantic event and the 2003 Mediterranean event.

For example, here is the `detect()` function applied to the Western Australian test data, which are also discussed by Hobday et al. (2016):

``` r
library(RmarineHeatWaves); library(dplyr)
ts <- make_whole(sst_WA)
mhw <- detect(ts, climatology_start = 1983, climatology_end = 2012)
mhw$event %>% 
  ungroup() %>%
  select(event_no, duration, date_start, date_peak, int_mean, int_max, int_cum) %>% 
  dplyr::arrange(-int_cum)
#> # A tibble: 60 × 7
#>    event_no duration date_start  date_peak int_mean  int_max   int_cum
#>       <int>    <dbl>     <date>     <date>    <dbl>    <dbl>     <dbl>
#> 1        22       95 1999-05-13 1999-05-22 2.498305 3.601700 237.33900
#> 2        42       60 2011-02-06 2011-02-28 3.211903 6.505969 192.71420
#> 3        49       47 2012-01-11 2012-01-27 2.225734 3.300112 104.60948
#> 4        50       46 2012-03-01 2012-04-10 1.993709 2.957609  91.71061
#> 5        41       40 2010-12-24 2011-01-28 2.157016 3.274803  86.28064
#> 6        31       34 2008-03-26 2008-04-14 2.236577 3.769274  76.04363
#> 7        18       38 1996-11-17 1996-12-21 1.820192 2.467469  69.16728
#> 8        23       29 2000-04-21 2000-05-04 1.949836 2.741701  56.54523
#> 9        48       29 2011-11-30 2011-12-19 1.760314 2.281731  51.04911
#> 10       39       24 2010-10-30 2010-11-03 1.623114 2.585006  38.95475
#> # ... with 50 more rows
```
…
Marine cold spells are also accommodated. Here is a cold spell detected in the Western Australian OISST data:

``` r
mcs <- detect(ts, climatology_start = 1983, climatology_end = 2012, cold_spells = TRUE)
mcs$event %>% 
  ungroup() %>%
  select(event_no, duration, date_start, date_peak, int_mean, int_max, int_cum) %>% 
  dplyr::arrange(int_cum)
#> # A tibble: 71 × 7
#>    event_no duration date_start  date_peak  int_mean   int_max    int_cum
#>       <int>    <dbl>     <date>     <date>     <dbl>     <dbl>      <dbl>
#> 1        16       76 1990-04-13 1990-05-11 -2.538017 -3.218054 -192.88929
#> 2        54       58 2003-12-19 2004-01-23 -1.798455 -2.662320 -104.31038
#> 3        71       52 2014-04-14 2014-05-05 -1.818984 -2.565533  -94.58715
#> 4         8       38 1986-06-24 1986-07-17 -2.009802 -2.950536  -76.37248
#> 5        51       32 2003-09-08 2003-09-16 -1.560817 -2.116583  -49.94613
#> 6        31       28 1993-03-18 1993-04-11 -1.710159 -2.494210  -47.88444
#> 7        47       27 2002-09-11 2002-09-25 -1.714935 -2.618133  -46.30325
#> 8        40       22 1997-08-09 1997-08-22 -1.688167 -2.290205  -37.13966
#> 9        29       18 1992-06-20 1992-07-05 -1.934667 -2.329971  -34.82400
#> 10       41       18 1997-09-08 1997-09-15 -1.735893 -2.273214  -31.24607
#> # ... with 61 more rows
```
…
